Data Transformation with dplyr
…
mutate()

Mutate allows you to add new columns to the dataframe. You will always see the new variables or columnes at the end of the dataframe. Following the book, I’ll just add two columns. mutate(flights, gain=arr_delay - dep_delay, speed=distance/air_time*60)

summarize()

let’s say I want to know the average arrival delay of the flights. summarize(flights, delay=mean(arr_delay, na.rm=TRUE))
This results in the mean of the whole column arr_delay. How about if I want to know the average arrival delay per day? I’ll have to use the function group_by.

by_day <- group_by(flights, year, month, day)
summarize(by_day, delay=mean(dep_delay, na.rm=TRUE))

## # A tibble: 365 x 4
## # Groups:   year, month [12]
##     year month   day delay
##    <int> <int> <int> <dbl>
##  1  2013     1     1 11.5 
##  2  2013     1     2 13.9 
##  3  2013     1     3 11.0 
##  4  2013     1     4  8.95
##  5  2013     1     5  5.73
##  6  2013     1     6  7.15
##  7  2013     1     7  5.42
##  8  2013     1     8  2.55
##  9  2013     1     9  2.28
## 10  2013     1    10  2.84
## # ... with 355 more rows

What I am doing with group_by() is grouping the flights dataframe by the 3 columns. But note that it doesn’t change how the data looks. So, if we call by_day, we’ll see the same dataframe.

by_day

## # A tibble: 336,776 x 19
## # Groups:   year, month, day [365]
##     year month   day dep_time sched_dep_time dep_delay arr_time sched_arr_time
##    <int> <int> <int>    <int>          <int>     <dbl>    <int>          <int>
##  1  2013     1     1      517            515         2      830            819
##  2  2013     1     1      533            529         4      850            830
##  3  2013     1     1      542            540         2      923            850
##  4  2013     1     1      544            545        -1     1004           1022
##  5  2013     1     1      554            600        -6      812            837
##  6  2013     1     1      554            558        -4      740            728
##  7  2013     1     1      555            600        -5      913            854
##  8  2013     1     1      557            600        -3      709            723
##  9  2013     1     1      557            600        -3      838            846
## 10  2013     1     1      558            600        -2      753            745
## # ... with 336,766 more rows, and 11 more variables: arr_delay <dbl>,
## #   carrier <chr>, flight <int>, tailnum <chr>, origin <chr>, dest <chr>,
## #   air_time <dbl>, distance <dbl>, hour <dbl>, minute <dbl>, time_hour <dttm>
…
Now that we have a basic kwowledge of summarize works with group_by, it is useful to learn the Pipe operator or also %>%. First of all, a shortcut for the pipe is ctrl + shift + m. We observe that for using the summarize function in combination with group_by(), we have the first group the dataframe and save it in a new variable. Then, we proceed to use the new variable in the summarize function().
But that just takes a lot of time. So instead, we can combine both code lines with the pipe operator:

flights %>% 
    group_by(year, month, day) %>% 
    summarize(mean=mean(arr_delay, na.rm=TRUE))

## # A tibble: 365 x 4
## # Groups:   year, month [12]
##     year month   day   mean
##    <int> <int> <int>  <dbl>
##  1  2013     1     1 12.7  
##  2  2013     1     2 12.7  
##  3  2013     1     3  5.73 
##  4  2013     1     4 -1.93 
##  5  2013     1     5 -1.53 
##  6  2013     1     6  4.24 
##  7  2013     1     7 -4.95 
##  8  2013     1     8 -3.23 
##  9  2013     1     9 -0.264
## 10  2013     1    10 -5.90 
## # ... with 355 more rows
…
